<?xml version="1.0" encoding="utf-8"?>
<!-- Generator: Adobe Illustrator 16.0.0, SVG Export Plug-In . SVG Version: 6.00 Build 0)  -->
<!DOCTYPE svg PUBLIC "-//W3C//DTD SVG 1.1//EN" "http://www.w3.org/Graphics/SVG/1.1/DTD/svg11.dtd">
<svg version="1.1" id="Layer_1" xmlns="http://www.w3.org/2000/svg" xmlns:xlink="http://www.w3.org/1999/xlink" x="0px" y="0px"
	 width="28.95px" height="25.148px" viewBox="0 0 28.95 25.148" enable-background="new 0 0 28.95 25.148" xml:space="preserve">
<polyline fill="none" stroke="#0CA3D9" stroke-width="2" stroke-miterlimit="10" points="27.925,17.854 27.925,23.651 
	24.335,23.651 1.46,23.651 1.46,17.854 "/>
<polyline fill="none" stroke="#0CA3D9" stroke-width="2" stroke-miterlimit="10" points="7.139,10.516 14.735,17.854 22.331,10.516 
	"/>
<line fill="none" stroke="#0CA3D9" stroke-width="2" stroke-miterlimit="10" x1="14.735" y1="0.972" x2="14.735" y2="17.854"/>
</svg>
