<?xml version="1.0" encoding="utf-8"?>
<!-- Generator: Adobe Illustrator 21.1.0, SVG Export Plug-In . SVG Version: 6.00 Build 0)  -->
<svg version="1.1" id="Layer_1" xmlns="http://www.w3.org/2000/svg" xmlns:xlink="http://www.w3.org/1999/xlink" x="0px" y="0px"
	 viewBox="0 0 61 48" style="enable-background:new 0 0 61 48;" xml:space="preserve">
<style type="text/css">
	.st0{fill:#979797;}
</style>
<polygon class="st0" points="26.2,31.6 26.2,16.7 36.8,23.8 "/>
<g>
	<g>
		<path class="st0" d="M0.8,43.3V4.7c0-2,1.6-3.6,3.6-3.6H57c2,0,3.6,1.6,3.6,3.6V30h-2.1V4.7c0-0.8-0.7-1.5-1.5-1.5H4.4
			c-0.8,0-1.5,0.7-1.5,1.5v38.7c0,0.8,0.7,1.5,1.5,1.5h40.1v2.1H4.4C2.4,46.9,0.8,45.3,0.8,43.3z"/>
	</g>
	<g>
		<path class="st0" d="M60.6,4.7v38.7c0,2-1.6,3.6-3.6,3.6H4.4c-2,0-3.6-1.6-3.6-3.6V17.9h2.1v25.4c0,0.8,0.7,1.5,1.5,1.5H57
			c0.8,0,1.5-0.7,1.5-1.5V4.7c0-0.8-0.7-1.5-1.5-1.5H17V1H57C59,1,60.6,2.7,60.6,4.7z"/>
	</g>
</g>
</svg>
